<?xml version="1.0" encoding="utf-8"?>
<!-- Generator: Adobe Illustrator 27.7.0, SVG Export Plug-In . SVG Version: 6.00 Build 0)  -->
<svg version="1.1" id="Ebene_7" xmlns="http://www.w3.org/2000/svg" xmlns:xlink="http://www.w3.org/1999/xlink" x="0px" y="0px"
	 viewBox="0 0 200 200" style="enable-background:new 0 0 200 200;" xml:space="preserve">
<style type="text/css">
	.st0{fill:#A5D7D2;}
	.st1{fill:#2D373C;}
</style>
<g>
	<circle class="st0" cx="100" cy="100" r="99"/>
	<g>
		<path class="st1" d="M149.349,74.058c-1.385-5.492-5.468-9.832-10.646-11.324c-7.822-2.291-35.856-2.357-39.027-2.357
			c-3.169,0-31.19,0.063-39.03,2.271c-5.099,1.498-9.278,5.98-10.65,11.434c-2.073,8.427-2.097,25.128-2.097,25.835
			c0,0.711,0.024,17.497,2.1,25.85c1.382,5.496,5.467,9.84,10.657,11.335c7.896,2.288,35.857,2.355,39.019,2.355
			c3.169,0,31.189-0.063,39.015-2.267c5.193-1.497,9.279-5.84,10.665-11.352c2.072-8.427,2.096-25.128,2.096-25.821
			C151.454,99.307,151.508,82.505,149.349,74.058z M145.511,100.004c0,0.166-0.024,16.687-1.92,24.401
			c-0.869,3.452-3.377,6.164-6.528,7.073c-5.941,1.673-29.003,2.04-37.387,2.04c-8.359,0-31.368-0.381-37.371-2.121
			c-3.169-0.913-5.677-3.625-6.543-7.069c-1.899-7.641-1.923-24.242-1.923-24.409c0-0.166,0.024-16.688,1.921-24.401
			c0.865-3.437,3.44-6.251,6.528-7.159c5.941-1.673,29.003-2.04,37.388-2.04c8.38,0,31.429,0.381,37.37,2.121
			c3.169,0.913,5.677,3.625,6.546,7.078l0.003,0.011C145.565,83.236,145.512,99.823,145.511,100.004z"/>
		<path class="st1" d="M126.089,97.528L84.215,73.41c-0.919-0.53-2.051-0.528-2.969,0.002s-1.484,1.511-1.484,2.571v48.235
			c0,1.061,0.566,2.04,1.484,2.571c0.46,0.266,0.973,0.399,1.486,0.399c0.512,0,1.023-0.132,1.482-0.396l41.875-24.117
			c0.92-0.53,1.488-1.512,1.488-2.574S127.01,98.058,126.089,97.528z M85.703,119.081V81.122l32.954,18.98L85.703,119.081z"/>
	</g>
</g>
</svg>
