<?xml version="1.0" encoding="utf-8"?>
<!-- Generator: Adobe Illustrator 21.0.0, SVG Export Plug-In . SVG Version: 6.00 Build 0)  -->
<svg version="1.1" id="Ebene_2" xmlns="http://www.w3.org/2000/svg" xmlns:xlink="http://www.w3.org/1999/xlink" x="0px" y="0px"
	 viewBox="0 0 121.323 61.228" enable-background="new 0 0 121.323 61.228" xml:space="preserve">
<g>
	<path d="M98.944,28.35h-1.713v11.101h1.713V28.35z M90.715,34.844c0.03-0.216,0.059-0.433,0.13-0.648
		c0.086-0.273,0.519-1.339,1.628-1.354c0.158,0,0.49,0.029,0.85,0.259c0.647,0.402,0.748,1.022,0.792,1.728L90.715,34.844z
		 M95.885,35.794c-0.015-0.289,0.029-1.325-0.403-2.218c-0.777-1.569-2.448-1.714-2.966-1.714c-0.476,0-1.801,0.116-2.736,1.225
		c-0.864,1.023-0.921,2.332-0.921,2.75c0,1.785,0.921,2.721,1.512,3.124c0.404,0.289,1.21,0.677,2.433,0.692
		c0.95,0,1.657-0.23,1.988-0.346c0.374-0.143,0.691-0.316,0.82-0.388v-1.455c-0.331,0.316-0.446,0.433-0.647,0.575
		c-0.734,0.548-1.411,0.605-1.786,0.605c-0.605,0-1.295-0.188-1.727-0.619c-0.547-0.519-0.706-1.31-0.75-1.512
		c-0.043-0.259-0.043-0.446-0.056-0.719H95.885z M83.129,37.593l-0.013,1.642c0.373,0.143,0.978,0.403,1.942,0.417
		c1.109,0,1.685-0.346,2.073-0.676c0.735-0.649,0.793-1.426,0.793-1.801c0-0.259-0.058-1.008-0.692-1.526
		c-0.417-0.346-1.022-0.533-1.526-0.735c-0.445-0.172-0.676-0.301-0.849-0.46c-0.173-0.145-0.273-0.374-0.273-0.618
		c0-0.117,0.028-0.361,0.217-0.59c0.331-0.39,0.978-0.417,1.078-0.417c0.503,0,0.921,0.201,1.311,0.504
		c0.13,0.086,0.244,0.171,0.359,0.273v-1.454c-0.576-0.188-1.008-0.304-1.612-0.304c-0.403,0-0.778,0.058-0.922,0.087
		c-0.46,0.1-0.763,0.259-0.921,0.359c-0.633,0.417-1.037,1.167-1.037,1.916c0,0.217,0.044,0.85,0.49,1.325
		c0.433,0.46,1.224,0.705,1.339,0.748c0.605,0.202,1.513,0.461,1.513,1.267c0,0.101-0.016,0.316-0.173,0.533
		c-0.159,0.217-0.461,0.518-1.094,0.518c-0.922,0-1.585-0.562-1.786-0.749L83.129,37.593z M79.941,38.198
		c-0.719,0.245-1.007,0.289-1.411,0.289c-0.173,0.014-0.633-0.014-1.08-0.217c-1.008-0.46-1.138-1.526-1.181-1.858
		c-0.058-0.345-0.058-0.633-0.058-0.777c0-0.245,0-1.829,1.108-2.548c0.432-0.273,0.85-0.317,1.036-0.317
		c0.952,0,1.354,0.663,1.47,0.98c0.115,0.301,0.115,0.646,0.115,0.748V38.198z M81.626,31.964l-0.921,0.547
		c-1.268-0.519-1.685-0.649-2.434-0.649c-1.426,0-2.779,0.735-3.413,2.017c-0.388,0.792-0.417,1.612-0.417,1.9
		c0,0.979,0.331,1.685,0.504,2.017c0.246,0.417,0.519,0.691,0.648,0.82c0.95,0.821,2.131,0.806,2.52,0.821
		c0.258,0.014,0.504,0.014,0.748,0.014h2.765V31.964z M68.173,30.481c0.214-0.114,0.574-0.288,1.165-0.288
		c0.794,0,1.628,0.345,2.016,1.064c0.059,0.101,0.187,0.346,0.187,0.677c0,0.547-0.402,0.98-0.488,1.08
		c-0.375,0.417-0.893,0.821-0.893,1.381c0,0.173,0.043,0.331,0.129,0.49c0.057,0.087,0.173,0.245,0.36,0.432
		c0.46,0.432,1.066,0.793,1.066,1.497c0,0.418-0.158,0.806-0.448,1.108c-0.431,0.476-1.05,0.619-1.67,0.619
		c-0.706,0-1.123-0.157-1.41-0.243L68.173,30.481z M66.416,39.451h3.181c0.721-0.014,1.023-0.058,1.383-0.144
		c1.31-0.316,1.958-1.194,2.175-1.656c0.216-0.461,0.229-0.907,0.229-1.08c0-0.936-0.402-1.426-0.663-1.7
		c-0.128-0.114-0.259-0.23-0.388-0.358l-0.562-0.519c0.589-0.634,1.21-1.282,1.21-2.204c0-0.273-0.071-0.833-0.534-1.411
		c-0.805-1.037-1.9-1.08-2.361-1.093c-0.202-0.014-0.418-0.014-0.619,0h-3.052V39.451z M57.69,32.051h-1.122v1.151h1.122v6.248
		h1.713v-6.248h1.311v-1.151h-1.311v-1.484c0-0.116-0.072-0.878,0.547-1.094c0.174-0.073,0.347-0.073,0.403-0.073
		c0.158,0,0.289,0.044,0.345,0.073l0.016-1.124c-0.173,0-1.138-0.071-1.858,0.246c-1.138,0.504-1.138,1.915-1.151,2.189
		c-0.015,0.173-0.015,0.345-0.015,0.503V32.051z M54.313,35.708c-0.013,0.908-0.201,2.145-1.021,2.693
		c-0.159,0.1-0.461,0.273-0.937,0.273c-0.446,0-0.834-0.145-1.166-0.433c-0.504-0.431-0.721-1.036-0.821-1.67
		c-0.015-0.129-0.057-0.476-0.057-0.85c0-1.412,0.475-2.202,0.979-2.562c0.417-0.303,0.835-0.331,1.021-0.331
		c0.188,0,0.563,0.028,0.952,0.273C54.357,33.792,54.313,35.505,54.313,35.708 M56.084,35.722c0-0.504-0.1-0.936-0.143-1.108
		c-0.432-1.815-1.728-2.391-2.419-2.592c-0.518-0.144-0.965-0.159-1.167-0.159c-0.634,0-2.519,0.145-3.397,1.988
		c-0.404,0.805-0.432,1.598-0.432,1.915c0,2.289,1.468,3.872,3.772,3.872c1.814,0,3.225-0.95,3.643-2.749
		C55.984,36.729,56.084,36.226,56.084,35.722"/>
	<path d="M115.599,17.432h-1.555l-2.332,6.537l-2.318-6.537h-1.888l2.809,7.386c0.143,0.058,0.229,0.101,0.287,0.145
		c0.202,0.144,0.303,0.404,0.303,0.648c0,0.474-0.317,0.705-0.462,0.791c-0.433,0.231-1.281,0.115-1.31,0.115l-0.015,1.296
		c0.59,0,1.166,0,1.729-0.216c0.69-0.246,1.036-0.706,1.353-1.368c0.216-0.418,0.373-0.863,0.533-1.311L115.599,17.432z
		 M106.924,17.432h-1.295v-2.534c0-0.173,0.014-0.448-0.23-0.448c-0.056,0-0.159,0.03-0.201,0.058
		c-0.073,0.059-0.086,0.173-0.102,0.36c-0.101,0.663-0.288,1.311-0.72,1.815c-0.59,0.72-1.223,0.735-1.599,0.764v1.137h1.124v6.249
		h1.727v-6.249h1.295V17.432z M99.626,15.589c0,0.562,0.46,1.008,1.007,1.008c0.563,0,1.023-0.446,1.023-1.008
		c0-0.562-0.446-1.021-1.007-1.021C100.085,14.567,99.626,15.027,99.626,15.589 M101.497,17.432h-1.712v7.401h1.712V17.432z
		 M93.348,22.974l-0.014,1.642c0.373,0.144,0.979,0.404,1.944,0.418c1.107,0,1.685-0.345,2.072-0.677
		c0.734-0.648,0.794-1.425,0.794-1.8c0-0.259-0.059-1.008-0.693-1.527c-0.418-0.344-1.022-0.531-1.526-0.733
		c-0.446-0.172-0.677-0.302-0.85-0.461c-0.172-0.144-0.273-0.374-0.273-0.618c0-0.115,0.028-0.36,0.216-0.591
		c0.33-0.389,0.979-0.418,1.079-0.418c0.504,0,0.921,0.201,1.311,0.505c0.128,0.085,0.245,0.172,0.359,0.273v-1.454
		c-0.576-0.186-1.008-0.304-1.612-0.304c-0.404,0-0.777,0.058-0.922,0.086c-0.46,0.102-0.763,0.26-0.921,0.361
		c-0.633,0.417-1.037,1.165-1.037,1.914c0,0.217,0.043,0.849,0.49,1.324c0.432,0.46,1.223,0.706,1.339,0.749
		c0.604,0.202,1.511,0.46,1.511,1.267c0,0.101-0.014,0.317-0.173,0.533c-0.157,0.217-0.46,0.518-1.094,0.518
		c-0.92,0-1.582-0.561-1.785-0.749L93.348,22.974z M87.658,17.432v7.4h1.713v-6.292c0.273-0.13,0.59-0.259,1.238-0.216
		c-0.057,0.086-0.158,0.202-0.158,0.447c0,0.215,0.058,0.36,0.086,0.431c0.158,0.36,0.504,0.562,0.908,0.562
		c0.647,0,1.035-0.475,1.035-1.094c0-0.346-0.144-0.575-0.2-0.677c-0.347-0.519-1.008-0.532-1.571-0.562H87.658z M81.136,20.225
		c0.028-0.216,0.057-0.432,0.128-0.649c0.086-0.273,0.518-1.338,1.628-1.353c0.157,0,0.489,0.027,0.85,0.258
		c0.647,0.404,0.748,1.023,0.791,1.729L81.136,20.225z M86.304,21.175c-0.014-0.288,0.028-1.326-0.403-2.217
		c-0.778-1.57-2.448-1.713-2.966-1.713c-0.476,0-1.799,0.115-2.735,1.223c-0.865,1.022-0.922,2.333-0.922,2.751
		c0,1.785,0.922,2.72,1.512,3.124c0.402,0.287,1.209,0.677,2.432,0.69c0.951,0,1.656-0.231,1.988-0.345
		c0.373-0.144,0.69-0.317,0.82-0.39v-1.454c-0.331,0.317-0.447,0.433-0.648,0.577c-0.736,0.546-1.411,0.604-1.786,0.604
		c-0.604,0-1.295-0.187-1.729-0.619c-0.546-0.518-0.705-1.309-0.747-1.512c-0.044-0.259-0.044-0.446-0.058-0.72H86.304z
		 M79.007,17.432h-1.541l-2.117,5.903c-0.102,0.316-0.116,0.389-0.346,0.389l-2.231-6.292h-1.857l2.735,7.4h0.879
		c0.533-0.014,0.95-0.029,1.411-0.316c0.605-0.389,0.893-1.124,1.123-1.757L79.007,17.432z M67.675,15.589
		c0,0.562,0.46,1.008,1.007,1.008c0.561,0,1.022-0.446,1.022-1.008c0-0.562-0.445-1.021-1.008-1.021
		C68.135,14.567,67.675,15.027,67.675,15.589 M69.547,17.432h-1.714v7.401h1.714V17.432z M59.309,17.432v7.4h1.713v-6.118
		c0.289-0.146,0.605-0.317,1.281-0.317c1.108,0,1.542,0.504,1.699,0.993c0.072,0.23,0.102,0.459,0.116,0.965v4.478h1.699v-4.478
		c-0.057-0.836-0.115-1.569-0.791-2.146c-0.82-0.705-1.901-0.777-4.003-0.777H59.309z M57.538,14.667h-1.757v5.789
		c0.014,0.891,0,1.354-0.115,1.785c-0.13,0.447-0.36,0.733-0.476,0.878c-0.23,0.26-0.576,0.577-1.339,0.706
		c-0.301,0.058-0.546,0.058-0.661,0.058c-1.512,0-2.132-0.806-2.362-1.396c-0.173-0.462-0.217-1.008-0.202-2.029v-5.789H48.87v5.414
		c-0.014,1.194,0.03,1.842,0.202,2.375c0.187,0.634,0.59,1.225,1.123,1.626c0.461,0.376,1.484,0.938,2.996,0.938
		c1.368,0,2.345-0.475,2.793-0.748c1.05-0.692,1.354-1.7,1.454-2.162c0.101-0.489,0.116-0.993,0.101-2.029V14.667z"/>
	<path d="M22.787,33.815c-0.33-0.324-0.829,0.164-0.499,0.488l2.388,2.333l0.497-0.485C25.174,36.151,23.071,34.093,22.787,33.815
		 M18.93,36.638l-0.498-0.486l2.388-2.336c0.33-0.322,0.829,0.164,0.499,0.488C21.034,34.582,18.93,36.638,18.93,36.638
		 M8.824,20.167c0.331,0.322-0.167,0.81-0.498,0.488l-2.388-2.335l0.497-0.487C6.436,17.832,8.539,19.888,8.824,20.167 M5.939,23.94
		l0.499,0.487l2.388-2.336c0.33-0.322-0.168-0.81-0.498-0.486C8.043,21.883,5.939,23.94,5.939,23.94 M20.823,8.433
		c0.33,0.324,0.827-0.163,0.497-0.486l-2.388-2.336l-0.498,0.488C18.434,6.099,20.538,8.155,20.823,8.433 M24.674,5.611l0.498,0.488
		l-2.387,2.334c-0.331,0.324-0.829-0.163-0.499-0.486C22.57,7.667,24.674,5.611,24.674,5.611 M34.779,20.163
		c-0.33,0.323,0.169,0.81,0.499,0.486l2.388-2.335l-0.497-0.486C37.169,17.828,35.065,19.885,34.779,20.163 M37.669,23.935
		l-0.498,0.485l-2.388-2.333c-0.33-0.323,0.168-0.81,0.497-0.487C35.567,21.877,37.669,23.935,37.669,23.935 M14.851,13.844
		c0.33,0.323-0.168,0.81-0.499,0.487L5.939,6.104l0.498-0.487C6.437,5.617,14.566,13.565,14.851,13.844 M37.171,5.614l0.498,0.488
		l-8.415,8.226c-0.33,0.324-0.828-0.164-0.497-0.487C29.041,13.564,37.171,5.614,37.171,5.614 M14.352,27.923
		c0.33-0.322,0.829,0.166,0.498,0.488l-8.414,8.226l-0.497-0.485C5.939,36.151,14.066,28.201,14.352,27.923 M37.669,36.147
		l-0.498,0.487l-8.414-8.226c-0.331-0.324,0.167-0.811,0.497-0.488C29.54,28.199,37.669,36.147,37.669,36.147 M14.807,26.013
		c0.33,0.324-0.169,0.812-0.498,0.488c0,0-4.226-4.131-4.556-4.455c-0.331-0.324,0.168-0.811,0.498-0.488
		C10.25,21.558,14.523,25.735,14.807,26.013 M22.785,9.383c-0.33-0.324-0.829,0.164-0.498,0.488c0.33,0.323,4.556,4.456,4.556,4.456
		c0.331,0.322,0.829-0.165,0.499-0.488C27.057,13.56,22.785,9.383,22.785,9.383 M27.341,26.055c0.33,0.323-0.167,0.811-0.499,0.488
		c0,0-4.226-4.132-4.556-4.455c-0.331-0.324,0.168-0.811,0.498-0.488C22.785,21.6,27.057,25.777,27.341,26.055 M33.814,22.087
		c0.33-0.324-0.167-0.811-0.498-0.488c-0.33,0.323-4.556,4.455-4.556,4.455c-0.331,0.323,0.168,0.81,0.498,0.488
		C29.542,26.264,33.814,22.087,33.814,22.087 M16.761,14.325c-0.33,0.323-0.829-0.165-0.498-0.487c0,0,4.227-4.133,4.557-4.455
		c0.33-0.324,0.829,0.164,0.498,0.487C21.317,9.87,17.045,14.046,16.761,14.325 M21.317,22.087c0.331-0.324-0.167-0.811-0.498-0.488
		c-0.33,0.323-4.557,4.455-4.557,4.455c-0.33,0.323,0.169,0.81,0.498,0.488C17.045,26.264,21.317,22.087,21.317,22.087
		 M14.853,16.198c0.331-0.323-0.167-0.811-0.497-0.488c0,0-4.227,4.132-4.557,4.455c-0.33,0.323,0.168,0.811,0.499,0.488
		C10.297,20.654,14.569,16.476,14.853,16.198 M22.786,32.869c-0.331,0.324-0.829-0.165-0.499-0.487
		c0.33-0.324,4.557-4.455,4.557-4.455c0.33-0.324,0.829,0.164,0.497,0.486C27.057,28.692,22.786,32.869,22.786,32.869
		 M27.341,16.198c0.332-0.323-0.167-0.811-0.497-0.488c0,0-4.227,4.132-4.557,4.455c-0.33,0.323,0.168,0.811,0.499,0.488
		C22.786,20.654,27.057,16.476,27.341,16.198 M33.814,20.167c0.33,0.322-0.167,0.81-0.498,0.488
		c-0.33-0.324-4.556-4.456-4.556-4.456c-0.331-0.322,0.168-0.811,0.498-0.487C29.542,15.989,33.814,20.167,33.814,20.167
		 M16.761,27.928c-0.33-0.324-0.829,0.164-0.498,0.487c0,0,4.227,4.133,4.557,4.455c0.33,0.323,0.829-0.164,0.498-0.487
		C21.317,32.383,17.045,28.206,16.761,27.928 M21.317,20.167c0.331,0.322-0.167,0.81-0.498,0.488
		c-0.33-0.324-4.557-4.456-4.557-4.456c-0.33-0.322,0.169-0.811,0.498-0.487C17.045,15.989,21.317,20.167,21.317,20.167
		 M3.062,26.89v0.689h11.144c0.467,0,0.467-0.689,0-0.689H3.062z M40.545,26.89v0.689H29.399c-0.467,0-0.467-0.689,0-0.689H40.545z
		 M3.062,14.672v0.69h11.144c0.467,0,0.467-0.69,0-0.69H3.062z M40.545,14.672v0.69H29.399c-0.467,0-0.467-0.69,0-0.69H40.545z
		 M16.906,26.89c-0.466,0-0.466,0.689,0,0.689H26.7c0.466,0,0.466-0.689,0-0.689H16.906z M26.7,14.672c0.466,0,0.466,0.69,0,0.69
		h-9.794c-0.466,0-0.466-0.69,0-0.69H26.7z M27.698,39.451h0.704V28.555c0-0.457-0.704-0.457-0.704,0V39.451z M27.698,2.802h0.704
		v10.896c0,0.457-0.704,0.457-0.704,0V2.802z M27.698,25.915c0,0.457,0.704,0.457,0.704,0v-9.576c0-0.457-0.704-0.457-0.704,0
		V25.915z M15.204,28.555c0-0.457,0.705-0.457,0.705,0v10.896h-0.705V28.555z M15.204,13.698c0,0.457,0.704,0.457,0.704,0V2.802
		h-0.704V13.698z M15.204,16.338c0-0.457,0.704-0.457,0.704,0v9.576c0,0.457-0.704,0.457-0.704,0V16.338z"/>
</g>
<path d="M49.194,52.63h1.149l2.936,4.938V52.63h0.761v5.971h-1.059l-3.035-5.07v5.07h-0.752V52.63z"/>
<path d="M55.92,56.666c-0.017,0.86,0.339,1.497,1.191,1.497c0.504,0,0.91-0.265,0.976-0.86h0.777
	c-0.025,0.207-0.058,0.546-0.356,0.868c-0.182,0.207-0.595,0.554-1.431,0.554c-1.307,0-1.927-0.811-1.927-2.125
	c0-0.819,0.165-1.497,0.819-1.952c0.397-0.281,0.893-0.306,1.133-0.306c1.861,0,1.819,1.646,1.803,2.324H55.92z M58.111,56.12
	c0.008-0.397-0.066-1.224-1.025-1.224c-0.504,0-1.116,0.306-1.133,1.224H58.111z"/>
<path d="M60.147,54.449l1,3.308l1.05-3.308h1.018l0.943,3.275l1.042-3.275h0.802l-1.464,4.152h-0.894l-0.976-3.416l-1.083,3.416
	h-0.918l-1.373-4.152H60.147z"/>
<path d="M68.882,52.63h1.464l1.688,4.921l1.729-4.921h1.364v5.971h-0.811v-5.375l-1.96,5.375H71.57l-1.886-5.343v5.343h-0.802V52.63
	z"/>
<path d="M77.022,56.666c-0.017,0.86,0.339,1.497,1.191,1.497c0.504,0,0.91-0.265,0.976-0.86h0.777
	c-0.025,0.207-0.058,0.546-0.356,0.868c-0.182,0.207-0.595,0.554-1.431,0.554c-1.307,0-1.927-0.811-1.927-2.125
	c0-0.819,0.165-1.497,0.819-1.952c0.397-0.281,0.893-0.306,1.133-0.306c1.861,0,1.819,1.646,1.803,2.324H77.022z M79.214,56.12
	c0.008-0.397-0.066-1.224-1.025-1.224c-0.504,0-1.116,0.306-1.133,1.224H79.214z"/>
<path d="M83.905,52.638h0.777v5.301c0,0.091,0.017,0.447,0.033,0.662h-0.777l-0.017-0.662c-0.066,0.116-0.157,0.29-0.373,0.438
	c-0.339,0.231-0.744,0.306-1.025,0.306c-0.554,0-1.786-0.289-1.786-2.109c0-1.58,0.901-2.266,1.877-2.266
	c0.893,0,1.19,0.529,1.29,0.703V52.638z M83.615,55.31c-0.166-0.215-0.471-0.422-0.91-0.422c-1.142,0-1.142,1.381-1.142,1.662
	c0,0.736,0.19,1.588,1.142,1.588c1.224,0,1.224-1.348,1.224-1.67C83.93,55.864,83.789,55.533,83.615,55.31z"/>
<path d="M85.882,52.646h0.935v0.852h-0.935V52.646z M85.965,54.449h0.778v4.152h-0.778V54.449z"/>
<path d="M90.663,58.601c-0.058-0.207-0.074-0.405-0.074-0.62c-0.372,0.686-0.935,0.752-1.282,0.752
	c-0.951,0-1.464-0.538-1.464-1.224c0-0.331,0.116-0.86,0.728-1.216c0.447-0.248,1.108-0.273,1.439-0.273
	c0.199,0,0.323,0.008,0.562,0.025c0-0.513,0-0.736-0.149-0.918c-0.157-0.207-0.496-0.273-0.719-0.273
	c-0.786,0-0.827,0.538-0.835,0.703h-0.777c0.025-0.215,0.049-0.504,0.29-0.786c0.314-0.347,0.901-0.447,1.339-0.447
	c0.604,0,1.249,0.19,1.472,0.612c0.132,0.248,0.141,0.446,0.141,0.637L91.3,57.559c0,0.066,0.008,0.62,0.066,1.042H90.663z
	 M90.125,56.558c-0.314,0-1.497,0-1.497,0.844c0,0.265,0.166,0.72,0.86,0.72c0.397,0,0.695-0.157,0.885-0.447
	c0.173-0.281,0.182-0.513,0.198-1.092C90.432,56.566,90.316,56.558,90.125,56.558z"/>
<path d="M98.381,54.243c-0.033-0.207-0.141-1.034-1.29-1.034c-1.439,0-1.695,1.472-1.695,2.464c0,1.125,0.322,2.34,1.687,2.34
	c0.364,0,0.711-0.091,0.968-0.355c0.215-0.231,0.265-0.488,0.29-0.628h0.91c-0.124,1.174-1.208,1.662-2.233,1.662
	c-2.101,0-2.506-1.853-2.506-3.01c0-1.257,0.488-3.134,2.613-3.134c0.843,0,2.034,0.339,2.142,1.695H98.381z"/>
<path d="M100.649,56.666c-0.017,0.86,0.339,1.497,1.191,1.497c0.504,0,0.91-0.265,0.976-0.86h0.777
	c-0.025,0.207-0.058,0.546-0.356,0.868c-0.182,0.207-0.595,0.554-1.431,0.554c-1.307,0-1.927-0.811-1.927-2.125
	c0-0.819,0.166-1.497,0.819-1.952c0.397-0.281,0.893-0.306,1.133-0.306c1.861,0,1.819,1.646,1.803,2.324H100.649z M102.84,56.12
	c0.008-0.397-0.066-1.224-1.025-1.224c-0.504,0-1.116,0.306-1.133,1.224H102.84z"/>
<path d="M104.677,54.929l-0.008-0.48h0.778l0.008,0.67c0.091-0.173,0.389-0.752,1.332-0.752c0.373,0,1.505,0.141,1.505,1.414v2.82
	h-0.794v-2.638c0-0.273-0.033-0.521-0.223-0.711c-0.199-0.19-0.472-0.281-0.736-0.281c-0.562,0-1.083,0.405-1.083,1.241v2.39h-0.777
	V54.929z"/>
<path d="M108.946,54.433h0.736v-0.868l0.769-0.248v1.116h0.926v0.571h-0.926v2.489c0,0.207,0,0.554,0.554,0.554
	c0.157,0,0.306-0.025,0.372-0.041v0.604c-0.141,0.025-0.364,0.05-0.645,0.05c-0.711,0-1.05-0.207-1.05-0.885v-2.771h-0.736V54.433z"
	/>
<path d="M112.685,56.666c-0.017,0.86,0.339,1.497,1.191,1.497c0.504,0,0.91-0.265,0.976-0.86h0.777
	c-0.025,0.207-0.058,0.546-0.356,0.868c-0.182,0.207-0.595,0.554-1.431,0.554c-1.307,0-1.927-0.811-1.927-2.125
	c0-0.819,0.166-1.497,0.819-1.952c0.397-0.281,0.893-0.306,1.133-0.306c1.861,0,1.819,1.646,1.803,2.324H112.685z M114.876,56.12
	c0.008-0.397-0.066-1.224-1.025-1.224c-0.504,0-1.116,0.306-1.133,1.224H114.876z"/>
<path d="M116.73,55.293c0-0.281-0.017-0.571-0.042-0.844h0.786l0.016,0.802c0.149-0.579,0.646-0.769,0.993-0.819
	c0.231-0.033,0.405-0.024,0.538-0.016v0.761c-0.042-0.017-0.091-0.025-0.149-0.033s-0.132-0.008-0.223-0.008
	c-0.918,0-1.133,0.546-1.133,1.257v2.208h-0.786V55.293z"/>
</svg>
